<svg width="56" height="55" viewBox="0 0 56 55" fill="none" xmlns="http://www.w3.org/2000/svg">
<g clip-path="url(#clip0)">
<path d="M0.020752 0.0127258H2.93003C3.27425 0.0127258 3.59966 0.174077 3.90628 0.496779C4.2129 0.819482 4.36598 1.14843 4.36553 1.48363V6.97828C4.36553 7.12088 4.29839 7.26884 4.17418 7.4235C4.05152 7.57481 3.89395 7.69426 3.71493 7.77164C3.8971 7.83485 4.06115 7.94122 4.19298 8.08162C4.31403 8.22802 4.3756 8.41437 4.36553 8.60384V14.0797C4.36553 14.4279 4.22185 14.7535 3.93448 15.0565C3.64711 15.3596 3.32505 15.5111 2.9683 15.5111H0.020752V0.0127258ZM1.45626 6.9756H2.93339V1.48363H1.45626V6.9756ZM1.45626 14.0771H2.93339V8.41035H1.45626V14.0771Z" fill="white"/>
<path d="M8.51968 0.0127258V14.0797H10.6515V15.5111H7.0835V0.0127258H8.51968Z" fill="white"/>
<path d="M17.3287 0.0127258V14.0797C17.3287 14.4149 17.1754 14.7374 16.8688 15.0472C16.5622 15.3569 16.2368 15.5116 15.8926 15.5111H14.4154C14.0788 15.5111 13.7554 15.3565 13.4452 15.0472C13.135 14.7379 12.9797 14.4154 12.9792 14.0797V0.0127258H14.4181V14.0797H15.8952V0.0127258H17.3287Z" fill="white"/>
<path d="M20.0063 15.5111V0.0127258H23.8677V1.48564H21.4419V6.98029H23.5763V8.41236H21.4419V14.0797H23.8677V15.5111H20.0063Z" fill="white"/>
<path d="M2.91186 19.7505C3.25653 19.7505 3.58195 19.9118 3.88812 20.2345C4.19429 20.5572 4.34737 20.8868 4.34737 21.2234V33.8168C4.34737 34.152 4.19429 34.4745 3.88812 34.7842C3.58195 35.094 3.25653 35.2487 2.91186 35.2482H1.43473C1.09857 35.2482 0.775166 35.0936 0.46452 34.7842C0.153874 34.4749 -0.000554373 34.1525 0.00123609 33.8168V21.2234C0.00123609 20.8882 0.156335 20.5592 0.466534 20.2365C0.776732 19.9138 1.10014 19.7518 1.43674 19.7505H2.91186ZM1.43473 33.8175H2.91186V21.2234H1.43473V33.8175Z" fill="white"/>
<path d="M8.51888 19.7505L8.51216 20.2539C8.70526 20.1183 8.90712 19.9955 9.11645 19.8864C9.32459 19.7971 9.60412 19.7525 9.95505 19.7525C10.3763 19.7525 10.7209 19.8815 10.989 20.1394C11.2572 20.3974 11.3908 20.7587 11.3899 21.2234V35.2482H9.95505V21.2234H8.51888V35.2482H7.04175V19.7505H8.51888Z" fill="white"/>
<path d="M15.5238 19.7505V33.8168H17.6583V35.2482H14.0876V19.7505H15.5238Z" fill="white"/>
<path d="M21.4418 19.7505V35.2482H20.0056V19.7505H21.4418Z" fill="white"/>
<path d="M25.6329 19.7505L25.6262 20.2539C25.8193 20.1183 26.0211 19.9955 26.2305 19.8864C26.4386 19.7971 26.7181 19.7525 27.0691 19.7525C27.4903 19.7525 27.8349 19.8815 28.1031 20.1394C28.3712 20.3974 28.5055 20.7587 28.5059 21.2234V35.2482H27.0691V21.2234H25.6329V35.2482H24.1558V19.7505H25.6329Z" fill="white"/>
<path d="M31.2017 35.2482V19.7505H35.063V21.2234H32.6378V26.7133H34.7723V28.1454H32.6378V33.8168H35.063V35.2482H31.2017Z" fill="white"/>
<path d="M0.0885619 44.0147C-0.0122877 43.5967 -0.0612209 43.1679 -0.0571371 42.738V40.9973C-0.0571371 40.6625 0.0981854 40.3278 0.408831 39.993C0.719477 39.6582 1.04288 39.4904 1.37904 39.4895H2.85617C3.20039 39.4895 3.52581 39.6509 3.83242 39.9736C4.13904 40.2963 4.29235 40.6252 4.29235 40.9604V42.7407H2.85349V40.9578H1.37635V42.738C1.37696 43.1549 1.45528 43.5681 1.60732 43.9565C1.72672 44.2601 1.87512 44.5515 2.05046 44.8268L3.8237 47.458C4.06809 47.845 4.21603 48.4643 4.26751 49.3159C4.28004 49.5346 4.28653 50.0762 4.28698 50.9408V53.5518C4.28698 53.887 4.13367 54.2095 3.82705 54.5193C3.52044 54.829 3.19502 54.9837 2.8508 54.9832H1.37367C1.03661 54.9832 0.713211 54.8286 0.40346 54.5193C0.0937097 54.21 -0.0598227 53.8881 -0.0571371 53.5538V51.4255H1.37904V53.5538H2.85617V50.9428C2.85617 49.9608 2.83379 49.2933 2.78903 48.9403C2.73404 48.5612 2.59103 48.2001 2.3714 47.8858L0.583402 45.1562C0.35969 44.8038 0.192719 44.4187 0.0885619 44.0147Z" fill="white"/>
<path d="M9.85844 39.4868C10.2027 39.4868 10.5281 39.6482 10.8347 39.9709C11.1413 40.2936 11.2944 40.6226 11.2939 40.9578V53.5539C11.2939 53.8891 11.1409 54.2116 10.8347 54.5213C10.5285 54.8311 10.2031 54.9857 9.85844 54.9853H8.38131C8.04515 54.9853 7.72174 54.8306 7.4111 54.5213C7.10045 54.212 6.94535 53.8895 6.9458 53.5539V40.9578C6.9458 40.6226 7.1009 40.2936 7.4111 39.9709C7.7213 39.6482 8.0447 39.4868 8.38131 39.4868H9.85844ZM8.38131 53.5539H9.85844V40.9578H8.38131V53.5539Z" fill="white"/>
<path d="M15.4271 39.4868V53.5539H17.5616V54.9853H13.991V39.4868H15.4271Z" fill="white"/>
<path d="M24.2363 39.4868V53.5539C24.2363 53.8891 24.083 54.2116 23.7764 54.5213C23.4698 54.8311 23.1444 54.9857 22.8002 54.9853H21.327C20.9909 54.9853 20.6675 54.8306 20.3568 54.5213C20.0462 54.212 19.8909 53.8895 19.8909 53.5539V39.4868H21.327V53.5539H22.8042V39.4868H24.2363Z" fill="white"/>
<path d="M31.0272 39.4869V40.9598H29.5722V54.9853H28.0951V40.9578H26.6616V39.4849L31.0272 39.4869Z" fill="white"/>
<path d="M34.9079 39.4868V54.9853H33.4724V39.4868H34.9079Z" fill="white"/>
<path d="M40.5351 39.4868C40.8798 39.4868 41.2052 39.6482 41.5114 39.9709C41.8176 40.2936 41.9709 40.6226 41.9713 40.9578V53.5539C41.9713 53.8891 41.818 54.2116 41.5114 54.5213C41.2048 54.8311 40.8794 54.9857 40.5351 54.9853H39.058C38.721 54.9853 38.3975 54.8306 38.0878 54.5213C37.778 54.212 37.6227 53.8895 37.6218 53.5539V40.9578C37.6218 40.6226 37.7771 40.2936 38.0878 39.9709C38.3984 39.6482 38.7218 39.4868 39.058 39.4868H40.5351ZM39.058 53.5539H40.5351V40.9578H39.058V53.5539Z" fill="white"/>
<path d="M46.1429 39.4868L46.1362 39.9903C46.3291 39.8543 46.531 39.7315 46.7405 39.6228C46.9486 39.5324 47.2273 39.4889 47.5784 39.4889C48.0001 39.4889 48.3447 39.6178 48.6124 39.8758C48.8801 40.1338 49.0144 40.4951 49.0153 40.9598V54.9853H47.5798V40.9578H46.1429V54.9853H44.6658V39.4868H46.1429Z" fill="white"/>
<path d="M51.7989 44.0147C51.6981 43.5967 51.6491 43.1679 51.6532 42.738V40.9973C51.6532 40.6625 51.8085 40.3278 52.1192 39.993C52.4298 39.6582 52.7532 39.4904 53.0894 39.4895H54.5665C54.9107 39.4895 55.2361 39.6509 55.5428 39.9736C55.8494 40.2963 56.0027 40.6252 56.0027 40.9604V42.7407H54.5625V40.9578H53.0853V42.738C53.086 43.1549 53.1643 43.5681 53.3163 43.9565C53.4357 44.2601 53.5841 44.5516 53.7595 44.8268L55.5327 47.458C55.7771 47.845 55.925 48.4643 55.9765 49.3159C55.989 49.5346 55.9955 50.0762 55.996 50.9408V53.5519C55.996 53.8871 55.8427 54.2095 55.536 54.5193C55.2294 54.8291 54.9049 54.9844 54.5625 54.9853H53.0853C52.7483 54.9853 52.4249 54.8306 52.1151 54.5213C51.8054 54.212 51.6501 53.8895 51.6492 53.5539V51.4255H53.0853V53.5539H54.5625V50.9428C54.5625 49.9608 54.5401 49.2933 54.4953 48.9403C54.4403 48.5612 54.2973 48.2001 54.0777 47.8858L52.2931 45.1576C52.0695 44.8047 51.9027 44.4191 51.7989 44.0147Z" fill="white"/>
</g>
<defs>
<clipPath id="clip0">
<rect width="56" height="55" fill="white"/>
</clipPath>
</defs>
</svg>
